\relax 
\providecommand\hyper@newdestlabel[2]{}
\providecommand\HyperFirstAtBeginDocument{\AtBeginDocument}
\HyperFirstAtBeginDocument{\ifx\hyper@anchor\@undefined
\global\let\oldcontentsline\contentsline
\gdef\contentsline#1#2#3#4{\oldcontentsline{#1}{#2}{#3}}
\global\let\oldnewlabel\newlabel
\gdef\newlabel#1#2{\newlabelxx{#1}#2}
\gdef\newlabelxx#1#2#3#4#5#6{\oldnewlabel{#1}{{#2}{#3}}}
\AtEndDocument{\ifx\hyper@anchor\@undefined
\let\contentsline\oldcontentsline
\let\newlabel\oldnewlabel
\fi}
\fi}
\global\let\hyper@last\relax 
\gdef\HyperFirstAtBeginDocument#1{#1}
\providecommand\HyField@AuxAddToFields[1]{}
\providecommand\HyField@AuxAddToCoFields[2]{}
\providecommand \oddpage@label [2]{}
\@writefile{toc}{\@ifundefined {etoctocstyle}{\let \etoc@startlocaltoc \@gobble \let \etoc@settocdepth \@gobble \let \etoc@depthtag \@gobble \let \etoc@setlocaltop \@gobble }{}}
\@writefile{toc}{\contentsline {chapter}{\numberline {1}Class Index}{1}{chapter.1}\protected@file@percent }
\@writefile{lof}{\addvspace {10\p@ }}
\@writefile{lot}{\addvspace {10\p@ }}
\@writefile{toc}{\contentsline {section}{\numberline {1.1}Class List}{1}{section.1.1}\protected@file@percent }
\@writefile{toc}{\contentsline {chapter}{\numberline {2}File Index}{3}{chapter.2}\protected@file@percent }
\@writefile{lof}{\addvspace {10\p@ }}
\@writefile{lot}{\addvspace {10\p@ }}
\@writefile{toc}{\contentsline {section}{\numberline {2.1}File List}{3}{section.2.1}\protected@file@percent }
\@writefile{toc}{\contentsline {chapter}{\numberline {3}Class Documentation}{5}{chapter.3}\protected@file@percent }
\@writefile{lof}{\addvspace {10\p@ }}
\@writefile{lot}{\addvspace {10\p@ }}
\@writefile{toc}{\contentsline {section}{\numberline {3.1}estudiante Struct Reference}{5}{section.3.1}\protected@file@percent }
\newlabel{a00011}{{3.1}{5}{estudiante Struct Reference}{section.3.1}{}}
\@writefile{toc}{\contentsline {subsection}{\numberline {3.1.1}Detailed Description}{5}{subsection.3.1.1}\protected@file@percent }
\@writefile{toc}{\contentsline {subsection}{\numberline {3.1.2}Member Data Documentation}{5}{subsection.3.1.2}\protected@file@percent }
\newlabel{a00011_ad99fd3abcf5110efcb212a9e81abbb8d}{{3.1.2}{5}{Member Data Documentation}{subsection.3.1.2}{}}
\@writefile{toc}{\contentsline {subsubsection}{\numberline {3.1.2.1}esta}{5}{subsubsection.3.1.2.1}\protected@file@percent }
\newlabel{a00011_a64104b36e925e669adf4c4f23bb47ae2}{{3.1.2.1}{5}{\texorpdfstring {esta}{esta}}{subsubsection.3.1.2.1}{}}
\@writefile{toc}{\contentsline {subsubsection}{\numberline {3.1.2.2}peso}{5}{subsubsection.3.1.2.2}\protected@file@percent }
\newlabel{a00011_a39acae4001e248007074d2d05bb7cd9c}{{3.1.2.2}{5}{\texorpdfstring {peso}{peso}}{subsubsection.3.1.2.2}{}}
\@writefile{toc}{\contentsline {subsubsection}{\numberline {3.1.2.3}sexo}{5}{subsubsection.3.1.2.3}\protected@file@percent }
\@writefile{toc}{\contentsline {chapter}{\numberline {4}File Documentation}{7}{chapter.4}\protected@file@percent }
\@writefile{lof}{\addvspace {10\p@ }}
\@writefile{lot}{\addvspace {10\p@ }}
\@writefile{toc}{\contentsline {section}{\numberline {4.1}doxygen\discretionary {\mbox  {\scriptsize  $\hookleftarrow  $}}{}{}\_\discretionary {\mbox  {\scriptsize  $\hookleftarrow  $}}{}{}log.\discretionary {\mbox  {\scriptsize  $\hookleftarrow  $}}{}{}txt File Reference}{7}{section.4.1}\protected@file@percent }
\newlabel{a00002}{{4.1}{7}{doxygen\+\_\+log.\+txt File Reference}{section.4.1}{}}
\@writefile{toc}{\contentsline {section}{\numberline {4.2}P\discretionary {\mbox  {\scriptsize  $\hookleftarrow  $}}{}{}O\discretionary {\mbox  {\scriptsize  $\hookleftarrow  $}}{}{}O.\discretionary {\mbox  {\scriptsize  $\hookleftarrow  $}}{}{}c File Reference}{7}{section.4.2}\protected@file@percent }
\newlabel{a00005}{{4.2}{7}{P\+O\+O.\+c File Reference}{section.4.2}{}}
\@writefile{toc}{\contentsline {subsection}{\numberline {4.2.1}Function Documentation}{7}{subsection.4.2.1}\protected@file@percent }
\newlabel{a00005_aa4665e7548e2c72ef87c44dccca31b01}{{4.2.1}{7}{Function Documentation}{subsection.4.2.1}{}}
\@writefile{toc}{\contentsline {subsubsection}{\numberline {4.2.1.1}imprimir()}{7}{subsubsection.4.2.1.1}\protected@file@percent }
\gdef \LT@i {\LT@entry 
    {3}{17.8039pt}\LT@entry 
    {3}{112.99086pt}}
\newlabel{a00005_ae66f6b31b5ad750f1fe042a706a4e3d4}{{4.2.1.1}{8}{\texorpdfstring {imprimir()}{imprimir()}}{table.4.1}{}}
\@writefile{toc}{\contentsline {subsubsection}{\numberline {4.2.1.2}main()}{8}{subsubsection.4.2.1.2}\protected@file@percent }
