\@ifundefined {etoctocstyle}{\let \etoc@startlocaltoc \@gobble \let \etoc@settocdepth \@gobble \let \etoc@depthtag \@gobble \let \etoc@setlocaltop \@gobble }{}
\contentsline {chapter}{\numberline {1}Class Index}{1}{chapter.1}% 
\contentsline {section}{\numberline {1.1}Class List}{1}{section.1.1}% 
\contentsline {chapter}{\numberline {2}File Index}{3}{chapter.2}% 
\contentsline {section}{\numberline {2.1}File List}{3}{section.2.1}% 
\contentsline {chapter}{\numberline {3}Class Documentation}{5}{chapter.3}% 
\contentsline {section}{\numberline {3.1}estudiante Struct Reference}{5}{section.3.1}% 
\contentsline {subsection}{\numberline {3.1.1}Detailed Description}{5}{subsection.3.1.1}% 
\contentsline {subsection}{\numberline {3.1.2}Member Data Documentation}{5}{subsection.3.1.2}% 
\contentsline {subsubsection}{\numberline {3.1.2.1}esta}{5}{subsubsection.3.1.2.1}% 
\contentsline {subsubsection}{\numberline {3.1.2.2}peso}{5}{subsubsection.3.1.2.2}% 
\contentsline {subsubsection}{\numberline {3.1.2.3}sexo}{5}{subsubsection.3.1.2.3}% 
\contentsline {chapter}{\numberline {4}File Documentation}{7}{chapter.4}% 
\contentsline {section}{\numberline {4.1}doxygen\discretionary {\mbox {\scriptsize $\hookleftarrow $}}{}{}\_\discretionary {\mbox {\scriptsize $\hookleftarrow $}}{}{}log.\discretionary {\mbox {\scriptsize $\hookleftarrow $}}{}{}txt File Reference}{7}{section.4.1}% 
\contentsline {section}{\numberline {4.2}P\discretionary {\mbox {\scriptsize $\hookleftarrow $}}{}{}O\discretionary {\mbox {\scriptsize $\hookleftarrow $}}{}{}O.\discretionary {\mbox {\scriptsize $\hookleftarrow $}}{}{}c File Reference}{7}{section.4.2}% 
\contentsline {subsection}{\numberline {4.2.1}Function Documentation}{7}{subsection.4.2.1}% 
\contentsline {subsubsection}{\numberline {4.2.1.1}imprimir()}{7}{subsubsection.4.2.1.1}% 
\contentsline {subsubsection}{\numberline {4.2.1.2}main()}{8}{subsubsection.4.2.1.2}% 
